<?xml version="1.0" encoding="utf-8"?>
<!-- Generator: Adobe Illustrator 16.0.0, SVG Export Plug-In . SVG Version: 6.00 Build 0)  -->
<!DOCTYPE svg PUBLIC "-//W3C//DTD SVG 1.1//EN" "http://www.w3.org/Graphics/SVG/1.1/DTD/svg11.dtd">
<svg version="1.1" id="Layer_1" xmlns="http://www.w3.org/2000/svg" xmlns:xlink="http://www.w3.org/1999/xlink" x="0px" y="0px"
	 width="4251.971px" height="2834.65px" viewBox="0 0 4251.971 2834.65" enable-background="new 0 0 4251.971 2834.65"
	 xml:space="preserve">
<path d="M-268.015,569.282c-89.52-120.657-192.975-231.215-307.489-328.603c-115.091-97.877-241.37-182.461-375.332-251.402
	c-136.427-70.21-281.061-124.303-429.885-160.777c-61.603-15.098-61.603-15.098-61.603-15.098
	c-68.984-11.645-125.426-84.952-125.426-162.904v-423.354c0,0-63.78,0-141.732,0h-283.464c-77.953,0-141.732,0-141.732,0v423.354
	c0,77.952-56.441,151.26-125.424,162.904c0,0,0,0-61.602,15.098c-148.824,36.474-293.458,90.566-429.883,160.775
	c-133.961,68.941-260.241,153.523-375.331,251.4c-114.515,97.387-217.969,207.943-307.49,328.599
	c-41.978,56.577-30.143,136.471,26.435,178.448c56.577,41.978,136.471,30.142,178.448-26.435
	c327.345-441.193,829.72-694.229,1378.312-694.229c548.596,0,1050.972,253.039,1378.314,694.235
	c25.029,33.734,63.534,51.563,102.543,51.562c26.415-0.001,53.063-8.178,75.906-25.125
	C-237.873,705.753-226.037,625.859-268.015,569.282z M-3288.751,636.762c-9.531,12.421-27.326,14.764-39.746,5.232
	c-12.421-9.529-14.763-27.324-5.233-39.746c9.53-12.418,27.326-14.762,39.747-5.232
	C-3281.565,606.547-3279.222,624.344-3288.751,636.762z M-2797.967,194.859c-13.351,8.178-30.803,3.989-38.983-9.358
	c-8.179-13.349-3.99-30.802,9.358-38.981s30.8-3.988,38.983,9.357C-2780.431,169.226-2784.622,186.68-2797.967,194.859z
	 M-2181.418-41.813c-15.396,2.852-30.188-7.313-33.037-22.707c-2.855-15.391,7.311-30.184,22.704-33.037
	c15.394-2.854,30.183,7.314,33.041,22.707C-2155.859-59.458-2166.027-44.664-2181.418-41.813z M-1487.965-64.518
	c-2.855,15.391-17.65,25.56-33.039,22.703c-15.395-2.853-25.564-17.643-22.709-33.035c2.854-15.393,17.645-25.561,33.041-22.705
	C-1495.283-94.704-1485.115-79.914-1487.965-64.518z M-865.475,185.501c-8.178,13.347-25.635,17.538-38.98,9.358
	c-13.348-8.183-17.541-25.633-9.359-38.98c8.18-13.35,25.633-17.537,38.98-9.358C-861.484,154.699-857.295,172.15-865.475,185.501z
	 M-373.928,641.999c-12.42,9.528-30.217,7.185-39.744-5.237c-9.531-12.42-7.189-30.215,5.23-39.742
	c12.422-9.535,30.217-7.189,39.744,5.23C-359.162,614.668-361.508,632.463-373.928,641.999z"/>
<path d="M2810.935,825.259l-100.895-99.544c-55.492-54.747-100.893-99.542-100.893-99.542L2311.815,927.54
	c-54.748,55.49-146.411,68.035-203.697,27.875c0,0,0,0-54.454-32.517c-131.558-78.56-272.506-141.632-418.931-187.47
	c-143.78-45.008-293.077-73.486-443.746-84.643c-149.916-11.104-301.206-5.062-449.671,17.955
	c-69.619,10.793-117.304,75.978-106.512,145.595c10.793,69.617,75.979,117.303,145.596,106.511
	c542.883-84.164,1078.215,88.543,1468.732,473.834c0.002,0.001,0.002,0.001,0.002,0.001L2810.935,825.259z M797.603,819.08
	c-15.507,2.147-29.821-8.683-31.968-24.191c-2.149-15.507,8.681-29.819,24.188-31.969c15.507-2.146,29.82,8.684,31.97,24.191
	C823.939,802.618,813.108,816.933,797.603,819.08z M1457.329,849.2c-15.246-3.555-24.728-18.794-21.176-34.041
	c3.552-15.247,18.792-24.728,34.038-21.177c15.248,3.554,24.727,18.792,21.18,34.041
	C1487.817,843.268,1472.574,852.749,1457.329,849.2z M2062.444,1113.741c-12.962-8.781-16.354-26.406-7.57-39.366
	c8.776-12.961,26.401-16.352,39.365-7.571c12.962,8.777,16.348,26.405,7.571,39.37
	C2093.033,1119.131,2075.403,1122.521,2062.444,1113.741z"/>
<path d="M2873.125,1287.845L2772.23,1188.3c-55.492-54.747-100.893-99.542-100.893-99.542l-297.332,301.367
	c-54.748,55.49-146.411,68.035-203.697,27.875c0,0,0,0-54.454-32.517c-131.558-78.56-272.506-141.632-418.931-187.47
	c-143.78-45.008-293.077-73.486-443.746-84.643c-149.916-11.104-301.206-5.062-449.671,17.955
	c-69.619,10.793-117.304,75.978-106.512,145.595c10.793,69.616,75.979,117.303,145.596,106.511
	c542.883-84.164,1078.215,88.543,1468.732,473.834c0.002,0.002,0.002,0.002,0.002,0.002L2873.125,1287.845z M859.793,1281.666
	c-15.507,2.147-29.821-8.683-31.968-24.191c-2.149-15.507,8.681-29.819,24.188-31.969c15.507-2.146,29.82,8.684,31.97,24.191
	C886.129,1265.204,875.298,1279.519,859.793,1281.666z M1519.52,1311.786c-15.246-3.555-24.728-18.794-21.176-34.041
	c3.552-15.247,18.792-24.728,34.038-21.177c15.248,3.554,24.727,18.792,21.18,34.041
	C1550.007,1305.854,1534.765,1315.334,1519.52,1311.786z M2124.635,1576.327c-12.962-8.781-16.354-26.406-7.57-39.366
	c8.776-12.961,26.402-16.352,39.365-7.571c12.962,8.776,16.349,26.405,7.572,39.37
	C2155.224,1581.717,2137.594,1585.107,2124.635,1576.327z"/>
<path d="M2861.038,626.172c108.875,227.318,166.879,479.361,166.879,741.999c0,262.639-58.004,514.682-166.879,742h277.434
	c35.891-88.246,65.35-179.066,88.004-271.508c15.098-61.604,15.098-61.604,15.098-61.604
	c11.645-68.984,84.953-125.426,162.906-125.426h423.352c0,0,0-63.779,0-141.732V1226.44c0-77.953,0-141.732,0-141.732h-423.352
	c-77.953,0-151.262-56.441-162.906-125.424c0,0,0,0-15.098-61.602c-22.654-92.441-52.113-183.266-88.004-271.51H2861.038z
	 M3125.952,1696.578c3.846,0.713,6.389,4.41,5.674,8.258c-0.713,3.848-4.408,6.389-8.256,5.676s-6.389-4.412-5.676-8.258
	C3118.407,1698.406,3122.104,1695.865,3125.952,1696.578z M3131.628,1031.51c0.713,3.848-1.828,7.543-5.676,8.258
	c-3.848,0.713-7.545-1.828-8.258-5.676s1.828-7.545,5.676-8.258S3130.915,1027.663,3131.628,1031.51z"/>
<g>
	<path d="M1784.297,1557.346c-55.153-18.28-111.131-34.119-167.715-47.429c-146.659-34.495-297.623-52.107-448.705-52.344
		c-150.324-0.232-300.784,16.729-447.197,50.419c-68.655,15.797-111.505,84.259-95.707,152.914
		c15.797,68.655,84.26,111.504,152.914,95.705c279.065-64.21,561.127-58.656,826.349,11.795L1784.297,1557.346z M783.258,1633.074
		c-3.828,0.816-7.593-1.626-8.408-5.452c-0.816-3.828,1.625-7.593,5.453-8.409c3.828-0.814,7.593,1.625,8.408,5.454
		C789.527,1628.495,787.084,1632.26,783.258,1633.074z M1451.181,1615.213c-3.865-0.611-6.504-4.239-5.894-8.104
		s4.239-6.504,8.104-5.894c3.865,0.609,6.503,4.237,5.894,8.104C1458.675,1613.184,1455.046,1615.823,1451.181,1615.213z"/>
</g>
<path d="M-1851.211,135.329h-141.734c-77.953,0-141.732,0-141.732,0v423.353c0,77.952-56.44,151.26-125.425,162.904
	c0,0,0,0-61.602,15.098c-148.824,36.474-293.457,90.566-429.883,160.775c-133.961,68.941-260.24,153.523-375.33,251.4
	c-114.516,97.387-217.97,207.943-307.49,328.599c-41.979,56.576-30.143,136.471,26.434,178.447
	c56.577,41.979,136.471,30.143,178.449-26.434c327.344-441.194,829.719-694.23,1378.312-694.23c0.001,0,0.001,0,0.002,0V135.329z
	 M-3288.751,1544.945c-9.531,12.422-27.326,14.764-39.746,5.232c-12.422-9.529-14.764-27.324-5.234-39.746
	c9.531-12.418,27.326-14.762,39.748-5.232C-3281.565,1514.73-3279.222,1532.527-3288.751,1544.945z M-2797.968,1103.043
	c-13.35,8.178-30.803,3.989-38.982-9.358c-8.18-13.349-3.99-30.802,9.357-38.981c13.35-8.18,30.801-3.988,38.984,9.357
	C-2780.431,1077.41-2784.622,1094.864-2797.968,1103.043z M-2181.419,866.372c-15.395,2.852-30.188-7.313-33.037-22.707
	c-2.855-15.391,7.311-30.184,22.705-33.037c15.393-2.854,30.183,7.314,33.04,22.707
	C-2155.859,848.726-2166.027,863.52-2181.419,866.372z"/>
<path d="M-1851.211,935.243c0.001,0,0.001,0,0.002,0c548.593,0,1050.968,253.036,1378.312,694.23
	c41.979,56.576,121.872,68.412,178.449,26.434c56.576-41.977,68.412-121.871,26.434-178.447
	c-89.521-120.656-192.975-231.212-307.49-328.599c-115.09-97.877-241.369-182.459-375.33-251.4
	c-136.426-70.209-281.059-124.302-429.883-160.775c-61.602-15.098-61.602-15.098-61.602-15.098
	c-68.984-11.645-125.425-84.952-125.425-162.904V135.329c0,0-63.779,0-141.732,0h-141.734V935.243z M-408.438,1505.199
	c12.422-9.529,30.217-7.186,39.748,5.232c9.529,12.422,7.188,30.217-5.234,39.746c-12.42,9.531-30.215,7.189-39.746-5.232
	C-423.2,1532.527-420.856,1514.73-408.438,1505.199z M-913.813,1064.061c8.184-13.346,25.635-17.537,38.984-9.357
	c13.348,8.18,17.537,25.633,9.357,38.981c-8.18,13.348-25.633,17.536-38.982,9.358
	C-917.8,1094.864-921.991,1077.41-913.813,1064.061z M-1543.711,833.334c2.857-15.393,17.647-25.562,33.04-22.707
	c15.395,2.854,25.561,17.646,22.705,33.037c-2.85,15.395-17.643,25.559-33.037,22.707
	C-1536.395,863.52-1546.563,848.726-1543.711,833.334z"/>
<path d="M-2622.076,2080.932c227.318-108.873,479.361-166.879,742-166.879c262.64,0,514.682,58.006,742,166.879V1803.5
	c-88.245-35.891-179.066-65.35-271.508-88.006c-61.603-15.098-61.603-15.098-61.603-15.098
	c-68.984-11.645-125.426-84.951-125.426-162.904V1114.14c0,0-63.78,0-141.732,0h-283.464c-77.953,0-141.732,0-141.732,0v423.352
	c0,77.953-56.441,151.26-125.424,162.904c0,0,0,0-61.602,15.098c-92.441,22.656-183.265,52.115-271.51,88.006V2080.932z
	 M-1551.67,1816.02c0.714-3.848,4.41-6.389,8.259-5.676c3.847,0.713,6.388,4.41,5.675,8.258s-4.411,6.389-8.258,5.674
	C-1549.842,1823.563-1552.383,1819.867-1551.67,1816.02z M-2216.738,1810.344c3.848-0.715,7.544,1.828,8.258,5.676
	c0.713,3.846-1.828,7.545-5.676,8.258s-7.545-1.828-8.258-5.676S-2220.586,1811.057-2216.738,1810.344z"/>
<g>
	<path d="M-2622.076,1803.5c-53.823,21.891-106.688,46.172-158.374,72.77c-133.962,68.941-260.241,153.523-375.331,251.4
		c-114.514,97.387-217.969,207.943-307.49,328.6c-41.978,56.576-30.143,136.471,26.436,178.447
		c56.576,41.979,136.471,30.143,178.447-26.434c170.629-229.971,388.816-408.813,636.313-527.352V1803.5z M-3334.482,2510.814
		c-2.383,3.105-6.831,3.691-9.936,1.309c-3.105-2.383-3.691-6.832-1.309-9.938c2.383-3.104,6.831-3.689,9.936-1.307
		C-3332.686,2503.262-3332.101,2507.711-3334.482,2510.814z M-2837.941,2063.725c-3.337,2.045-7.699,0.998-9.744-2.338
		c-2.044-3.338-0.997-7.699,2.34-9.744c3.336-2.045,7.698-0.996,9.744,2.34C-2833.558,2057.318-2834.605,2061.682-2837.941,2063.725
		z"/>
	<path d="M-296.878,2456.277c-89.52-120.658-192.975-231.215-307.489-328.604c-115.091-97.877-241.37-182.461-375.332-251.402
		c-51.687-26.6-104.553-50.881-158.377-72.771v277.432c247.498,118.541,465.688,297.383,636.314,527.357
		c25.029,33.734,63.534,51.563,102.543,51.561c26.415,0,53.063-8.178,75.906-25.125
		C-266.736,2592.748-254.9,2512.854-296.878,2456.277z M-912.467,2061.387c-2.043,3.336-6.407,4.385-9.743,2.34
		c-3.337-2.045-4.384-6.408-2.339-9.744c2.044-3.336,6.406-4.383,9.743-2.34C-911.469,2053.688-910.422,2058.051-912.467,2061.387z
		 M-415.733,2512.125c-3.104,2.381-7.554,1.795-9.936-1.311c-2.382-3.104-1.797-7.553,1.308-9.934
		c3.105-2.385,7.554-1.797,9.936,1.307C-412.043,2505.291-412.629,2509.74-415.733,2512.125z"/>
</g>
<path d="M1093.411,2067.883c148.511,22.729,299.813,28.477,449.708,17.083c150.647-11.45,299.891-40.22,443.582-85.509
	c55.441-17.473,110.09-37.424,163.736-59.748l-195.232-197.111c-259.262,89.947-540.137,116.424-823.199,73.104
	c-41.522-6.354-81.426,8.076-109.14,35.527c-18.767,18.59-31.946,43.15-36.25,71.268
	C975.96,1992.133,1023.773,2057.226,1093.411,2067.883z M1808.667,1915.249c-0.896-3.808,1.467-7.624,5.276-8.519
	c3.81-0.896,7.623,1.467,8.519,5.277c0.896,3.809-1.468,7.621-5.276,8.518C1813.376,1921.422,1809.563,1919.059,1808.667,1915.249z
	 M1138.556,1944.563c0.53-3.876,4.104-6.591,7.98-6.062c3.877,0.53,6.593,4.104,6.062,7.979c-0.528,3.879-4.102,6.593-7.979,6.064
	C1140.742,1952.016,1138.027,1948.443,1138.556,1944.563z"/>
</svg>
